Use QGIS Processing Algorithms • qgisprocess
…
A list of available algorithms can be found using qgis_algorithms(). When using R interactively, it may be useful to use View(qgis_algorithms()) to search.

qgis_algorithms()
#> # A tibble: 986 x 5
#>    provider provider_title algorithm         algorithm_id    algorithm_title    
#>    <chr>    <chr>          <chr>             <chr>           <chr>              
#>  1 3d       QGIS (3D)      3d:tessellate     tessellate      Tessellate         
#>  2 gdal     GDAL           gdal:aspect       aspect          Aspect             
#>  3 gdal     GDAL           gdal:assignproje… assignprojecti… Assign projection  
#>  4 gdal     GDAL           gdal:buffervecto… buffervectors   Buffer vectors     
#>  5 gdal     GDAL           gdal:buildvirtua… buildvirtualra… Build virtual rast…
#>  6 gdal     GDAL           gdal:buildvirtua… buildvirtualve… Build virtual vect…
#>  7 gdal     GDAL           gdal:cliprasterb… cliprasterbyex… Clip raster by ext…
#>  8 gdal     GDAL           gdal:cliprasterb… cliprasterbyma… Clip raster by mas…
#>  9 gdal     GDAL           gdal:clipvectorb… clipvectorbyex… Clip vector by ext…
#> 10 gdal     GDAL           gdal:clipvectorb… clipvectorbypo… Clip vector by mas…
#> # … with 976 more rows
…
