…
You can read the help associated with an algorithm using
[`qgis_show_help()`](https://r-spatial.github.io/qgisprocess/reference/qgis_show_help.md).

``` r
qgis_show_help("native:buffer")
```

A full list of available algorithms is returned by
[`qgis_algorithms()`](https://r-spatial.github.io/qgisprocess/reference/qgis_algorithms.md).

``` r
qgis_algorithms()
#> # A tibble: 2,055 × 25
#>    provider  provider_title algorithm               algorithm_id algorithm_title
#>    <chr>     <chr>          <chr>                   <chr>        <chr>          
#>  1 3d        QGIS (3D)      3d:tessellate           tessellate   Tessellate     
#>  2 NetworkGT NetworkGT      NetworkGT:1D Flow       1D Flow      1D Flow        
#>  3 NetworkGT NetworkGT      NetworkGT:2D Flow       2D Flow      2D Flow        
#>  4 NetworkGT NetworkGT      NetworkGT:Aperture      Aperture     Aperture       
#>  5 NetworkGT NetworkGT      NetworkGT:Branches and… Branches an… Branches and N…
#>  6 NetworkGT NetworkGT      NetworkGT:Clusters      Clusters     Define Clusters
#>  7 NetworkGT NetworkGT      NetworkGT:Configure     Configure    Configure Netw…
#>  8 NetworkGT NetworkGT      NetworkGT:Connect Y No… Connect Y N… Connect Y Nodes
#>  9 NetworkGT NetworkGT      NetworkGT:Contour Grid  Contour Grid Contour Grid   
#> 10 NetworkGT NetworkGT      NetworkGT:Define Fract… Define Frac… Define Fractur…
#> # ℹ 2,045 more rows
#> # ℹ 20 more variables: provider_can_be_activated <lgl>,
#> #   provider_is_active <lgl>, provider_long_name <chr>, provider_version <chr>,
#> #   provider_warning <chr>, can_cancel <lgl>, deprecated <lgl>, group <chr>,
#> #   has_known_issues <lgl>, help_url <chr>, requires_matching_crs <lgl>,
#> #   short_description <chr>, tags <list>, default_raster_file_format <chr>,
#> #   default_raster_file_extension <chr>, default_vector_file_extension <chr>, …
```
…
