…
Other topics about information on algorithms & processing providers:
[`qgis_search_algorithms()`](https://r-spatial.github.io/qgisprocess/reference/qgis_search_algorithms.md),
[`qgis_show_help()`](https://r-spatial.github.io/qgisprocess/reference/qgis_show_help.md)

Other topics about reporting the QGIS state:
[`has_qgis()`](https://r-spatial.github.io/qgisprocess/reference/has_qgis.md),
[`qgis_path()`](https://r-spatial.github.io/qgisprocess/reference/qgis_path.md),
[`qgis_using_json_input()`](https://r-spatial.github.io/qgisprocess/reference/qgis_using_json_input.md)

## Examples

``` r
qgis_algorithms()
#> # A tibble: 409 × 25
#>    provider provider_title algorithm                algorithm_id algorithm_title
#>    <chr>    <chr>          <chr>                    <chr>        <chr>          
#>  1 3d       QGIS (3D)      3d:tessellate            tessellate   Tessellate     
#>  2 gdal     GDAL           gdal:aspect              aspect       Aspect         
#>  3 gdal     GDAL           gdal:assignprojection    assignproje… Assign project…
#>  4 gdal     GDAL           gdal:buffervectors       buffervecto… Buffer vectors 
#>  5 gdal     GDAL           gdal:buildvirtualraster  buildvirtua… Build virtual …
#>  6 gdal     GDAL           gdal:buildvirtualvector  buildvirtua… Build virtual …
#>  7 gdal     GDAL           gdal:cliprasterbyextent  cliprasterb… Clip raster by…
#>  8 gdal     GDAL           gdal:cliprasterbymaskla… cliprasterb… Clip raster by…
#>  9 gdal     GDAL           gdal:clipvectorbyextent  clipvectorb… Clip vector by…
#> 10 gdal     GDAL           gdal:clipvectorbypolygon clipvectorb… Clip vector by…
#> # ℹ 399 more rows
#> # ℹ 20 more variables: provider_can_be_activated <lgl>,
#> #   provider_is_active <lgl>, provider_long_name <chr>, provider_version <chr>,
#> #   provider_warning <chr>, can_cancel <lgl>, deprecated <lgl>, group <chr>,
#> #   has_known_issues <lgl>, help_url <chr>, requires_matching_crs <lgl>,
#> #   short_description <chr>, tags <list>, default_raster_file_format <chr>,
#> #   default_raster_file_extension <chr>, default_vector_file_extension <chr>, …
qgis_algorithms(include_deprecated = FALSE)
#> # A tibble: 388 × 25
#>    provider provider_title algorithm                algorithm_id algorithm_title
#>    <chr>    <chr>          <chr>                    <chr>        <chr>          
#>  1 3d       QGIS (3D)      3d:tessellate            tessellate   Tessellate     
#>  2 gdal     GDAL           gdal:aspect              aspect       Aspect         
#>  3 gdal     GDAL           gdal:assignprojection    assignproje… Assign project…
#>  4 gdal     GDAL           gdal:buffervectors       buffervecto… Buffer vectors 
#>  5 gdal     GDAL           gdal:buildvirtualraster  buildvirtua… Build virtual …
#>  6 gdal     GDAL           gdal:buildvirtualvector  buildvirtua… Build virtual …
#>  7 gdal     GDAL           gdal:cliprasterbyextent  cliprasterb… Clip raster by…
#>  8 gdal     GDAL           gdal:cliprasterbymaskla… cliprasterb… Clip raster by…
#>  9 gdal     GDAL           gdal:clipvectorbyextent  clipvectorb… Clip vector by…
#> 10 gdal     GDAL           gdal:clipvectorbypolygon clipvectorb… Clip vector by…
#> # ℹ 378 more rows
#> # ℹ 20 more variables: provider_can_be_activated <lgl>,
#> #   provider_is_active <lgl>, provider_long_name <chr>, provider_version <chr>,
#> #   provider_warning <chr>, can_cancel <lgl>, deprecated <lgl>, group <chr>,
#> #   has_known_issues <lgl>, help_url <chr>, requires_matching_crs <lgl>,
#> #   short_description <chr>, tags <list>, default_raster_file_format <chr>,
#> #   default_raster_file_extension <chr>, default_vector_file_extension <chr>, …
…
