Run algorithms using 'qgis_process' — qgis_has_algorithm • qgisprocess
…
query
Use TRUE to refresh the cached value.

quiet
Use TRUE to suppress output from processing algorithms.

provider
A provider identifier (e.g., "native")

    Examples

if (has_qgis()) qgis_has_algorithm("native:filedownloader")
#> [1] TRUE
if (has_qgis()) qgis_algorithms()
#> # A tibble: 349 × 24
#>    provider provider_t…¹ algor…² algor…³ algor…⁴ provi…⁵ provi…⁶ provi…⁷ provi…⁸
#>    <chr>    <chr>        <chr>   <chr>   <chr>   <lgl>   <lgl>   <chr>   <chr>  
#>  1 3d       QGIS (3D)    3d:tes… tessel… Tessel… TRUE    TRUE    QGIS (… NA     
#>  2 gdal     GDAL         gdal:a… aspect  Aspect  TRUE    TRUE    GDAL (… NA     
#>  3 gdal     GDAL         gdal:a… assign… Assign… TRUE    TRUE    GDAL (… NA     
#>  4 gdal     GDAL         gdal:b… buffer… Buffer… TRUE    TRUE    GDAL (… NA     
#>  5 gdal     GDAL         gdal:b… buildv… Build … TRUE    TRUE    GDAL (… NA     
#>  6 gdal     GDAL         gdal:b… buildv… Build … TRUE    TRUE    GDAL (… NA     
#>  7 gdal     GDAL         gdal:c… clipra… Clip r… TRUE    TRUE    GDAL (… NA     
#>  8 gdal     GDAL         gdal:c… clipra… Clip r… TRUE    TRUE    GDAL (… NA     
#>  9 gdal     GDAL         gdal:c… clipve… Clip v… TRUE    TRUE    GDAL (… NA     
#> 10 gdal     GDAL         gdal:c… clipve… Clip v… TRUE    TRUE    GDAL (… NA     
#> # … with 339 more rows, 15 more variables: provider_warning <chr>,
#> #   can_cancel <lgl>, deprecated <lgl>, group <chr>, has_known_issues <lgl>,
#> #   help_url <chr>, requires_matching_crs <lgl>, short_description <chr>,
#> #   tags <list>, default_raster_file_extension <chr>,
#> #   default_vector_file_extension <chr>,
#> #   supported_output_raster_extensions <list>,
#> #   supported_output_table_extensions <list>, …
…
