Configure and run 'qgis_process' — qgis_run • qgisprocess
…
    Value

    The result of processx::run().

    Examples

if (has_qgis()) qgis_path()

#> [1] "/Applications/QGIS.app/Contents/MacOS/bin/qgis_process"
if (has_qgis()) qgis_version()

#> [1] "3.20.1-Odense"
if (has_qgis()) qgis_algorithms()

#> # A tibble: 989 × 5
#>    provider provider_title algorithm                  algorithm_id algorithm_title
#>    <chr>    <chr>          <chr>                      <chr>        <chr>          
#>  1 3d       QGIS (3D)      3d:tessellate              tessellate   Tessellate     
#>  2 gdal     GDAL           gdal:aspect                aspect       Aspect         
#>  3 gdal     GDAL           gdal:assignprojection      assignproje… Assign project…
#>  4 gdal     GDAL           gdal:buffervectors         buffervecto… Buffer vectors 
#>  5 gdal     GDAL           gdal:buildvirtualraster    buildvirtua… Build virtual …
#>  6 gdal     GDAL           gdal:buildvirtualvector    buildvirtua… Build virtual …
#>  7 gdal     GDAL           gdal:cliprasterbyextent    cliprasterb… Clip raster by…
#>  8 gdal     GDAL           gdal:cliprasterbymasklayer cliprasterb… Clip raster by…
#>  9 gdal     GDAL           gdal:clipvectorbyextent    clipvectorb… Clip vector by…
#> 10 gdal     GDAL           gdal:clipvectorbypolygon   clipvectorb… Clip vector by…
#> # … with 979 more rows
…
