How to use QGIS expressions in qgisprocess? • qgisprocess
…
qgis_run_algorithm(
  "native:extractbyexpression",
  INPUT = longlake_depth_path,
  EXPRESSION = '"DEPTH_M" > 1',
  .quiet = TRUE
) |>
  st_as_sf()
#> Using `OUTPUT = qgis_tmp_vector()`
#> Using `FAIL_OUTPUT = qgis_tmp_vector()`
#> Simple feature collection with 39 features and 2 fields
#> Geometry type: POINT
#> Dimension:     XY
#> Bounding box:  xmin: 410242.8 ymin: 5083519 xmax: 411466.8 ymax: 5084691
#> Projected CRS: NAD83 / UTM zone 20N
#> # A tibble: 39 × 3
#>    WAYPOINT_I DEPTH_M               geom
#>         <dbl>   <dbl>        <POINT [m]>
#>  1          8     1.4 (411466.8 5084488)
#>  2         12     1.4 (411379.1 5084490)
#>  3         17     1.4 (411292.9 5084670)
#>  4         19     1.5 (411290.8 5084593)
#>  5         20     1.5 (411286.8 5084534)
#>  6         24     1.2 (411272.2 5084333)
#>  7         25     1.5 (411244.6 5084420)
#>  8         27     1.6 (411220.3 5084500)
#>  9         29     1.7 (411205.4 5084575)
#> 10         36     1.8 (411133.2 5084691)
#> # ℹ 29 more rows
…
  INPUT = longlake_depth_path,
  FIELD_NAME = "distance",
  FORMULA = expr
) |> 
  st_as_sf()
#> Using `FIELD_TYPE = "Decimal (double)"`
#> Argument `FIELD_LENGTH` is unspecified (using QGIS default value).
#> Argument `FIELD_PRECISION` is unspecified (using QGIS default value).
#> Using `OUTPUT = qgis_tmp_vector()`
#> Simple feature collection with 64 features and 3 fields
#> Geometry type: POINT
#> Dimension:     XY
#> Bounding box:  xmin: 409967.1 ymin: 5083354 xmax: 411658.7 ymax: 5084777
#> Projected CRS: NAD83 / UTM zone 20N
#> # A tibble: 64 × 4
#>    WAYPOINT_I DEPTH_M distance               geom
#>         <dbl>   <dbl>    <dbl>        <POINT [m]>
#>  1          2     0.8     6.22 (411658.7 5084501)
#>  2          3     0.9    38.6  (411630.3 5084560)
#>  3          5     0.8    46.7  (411553.4 5084601)
#>  4          6     0.8    49.3  (411476.4 5084600)
#>  5          8     1.4   100.   (411466.8 5084488)
#>  6         10     0.6    25.4  (411466.4 5084410)
#>  7         12     1.4   140.   (411379.1 5084490)
#>  8         16     0.8    39.4  (411321.2 5084721)
#>  9         17     1.4    93.7  (411292.9 5084670)
#> 10         19     1.5   150.   (411290.8 5084593)
#> # ℹ 54 more rows
…
