Getting started with qgisprocess • qgisprocess
…
This tells us that we can also use the third-party providers GDAL,
GRASS and SAGA through the QGIS interface.

Basic usage

First example

To find out about the available (cached) geoalgorithms, run:

algs <- qgis_algorithms()
algs
#> # A tibble: 1,162 × 24
#>    provider provider_title algorithm                algorithm_id algorithm_title
#>    <chr>    <chr>          <chr>                    <chr>        <chr>          
#>  1 3d       QGIS (3D)      3d:tessellate            tessellate   Tessellate     
#>  2 gdal     GDAL           gdal:aspect              aspect       Aspect         
#>  3 gdal     GDAL           gdal:assignprojection    assignproje… Assign project…
#>  4 gdal     GDAL           gdal:buffervectors       buffervecto… Buffer vectors 
#>  5 gdal     GDAL           gdal:buildvirtualraster  buildvirtua… Build virtual …
#>  6 gdal     GDAL           gdal:buildvirtualvector  buildvirtua… Build virtual …
#>  7 gdal     GDAL           gdal:cliprasterbyextent  cliprasterb… Clip raster by…
#>  8 gdal     GDAL           gdal:cliprasterbymaskla… cliprasterb… Clip raster by…
#>  9 gdal     GDAL           gdal:clipvectorbyextent  clipvectorb… Clip vector by…
#> 10 gdal     GDAL           gdal:clipvectorbypolygon clipvectorb… Clip vector by…
#> # ℹ 1,152 more rows
#> # ℹ 19 more variables: provider_can_be_activated <lgl>,
#> #   provider_is_active <lgl>, provider_long_name <chr>, provider_version <chr>,
#> #   provider_warning <chr>, can_cancel <lgl>, deprecated <lgl>, group <chr>,
#> #   has_known_issues <lgl>, help_url <chr>, requires_matching_crs <lgl>,
#> #   short_description <chr>, tags <list>, default_raster_file_extension <chr>,
#> #   default_vector_file_extension <chr>, …
…
qgis_get_description() (also included in
qgis_show_help()) gives us the general description of the
algorithm.

qgis_get_description("grass7:r.slope.aspect")
#>                                                                                         grass7:r.slope.aspect 
#> "Generates raster layers of slope, aspect, curvatures and partial derivatives from a elevation raster layer."

We can find out about the arguments again with the help of
qgis_get_argument_specs().

qgis_get_argument_specs("grass7:r.slope.aspect")
#> # A tibble: 21 × 6
#>    name   description qgis_type default_value available_values acceptable_values
#>    <chr>  <chr>       <chr>     <list>        <list>           <list>           
#>  1 eleva… Elevation   raster    <NULL>        <NULL>           <chr [1]>        
#>  2 format Format for… enum      <int [1]>     <chr [2]>        <chr [2]>        
#>  3 preci… Type of ou… enum      <int [1]>     <chr [3]>        <chr [2]>        
#>  4 -a     Do not ali… boolean   <lgl [1]>     <NULL>           <chr [4]>        
#>  5 -e     Compute ou… boolean   <lgl [1]>     <NULL>           <chr [4]>        
#>  6 -n     Create asp… boolean   <lgl [1]>     <NULL>           <chr [4]>        
#>  7 zscale Multiplica… number    <dbl [1]>     <NULL>           <chr [3]>        
#>  8 min_s… Minimum sl… number    <dbl [1]>     <NULL>           <chr [3]>        
#>  9 slope  Slope       rasterDe… <NULL>        <NULL>           <chr [1]>        
#> 10 aspect Aspect      rasterDe… <NULL>        <NULL>           <chr [1]>        
#> # ℹ 11 more rows
…
To verify that it worked, read in the output.

sf::st_as_sf(rp_tp)
#> Simple feature collection with 100 features and 5 fields
#> Geometry type: POINT
#> Dimension:     XYZ
#> Bounding box:  xmin: 795551.4 ymin: 8932370 xmax: 797242.3 ymax: 8934800
#> z_range:       zmin: 0 zmax: 0
#> Projected CRS: WGS 84 / UTM zone 17S
#> # A tibble: 100 × 6
#>       id  spri file31e572e4780e file31e5c2a7bf5 file31e578c3a258
#>    <int> <int>            <dbl>           <dbl>            <dbl>
#>  1     1     4            251.             6.80        0.0000292
#>  2     2     4             79.7            4.60       -0.00206  
#>  3     3     3            290.             6.35       -0.00129  
#>  4     4     2             88.8            7.74        0.00108  
#>  5     5     4            341.            15.0        -0.000439 
#>  6     6     5            276.            16.0        -0.0000909
#>  7     7     6            272.             9.09       -0.000245 
#>  8     8     2            300.             4.62       -0.000846 
#>  9     9     3             68.9           13.3        -0.00115  
#> 10    10     3            101.            12.6         0.00151  
#> # ℹ 90 more rows
#> # ℹ 1 more variable: geom <POINT [m]>
…
